{
	"dflags-ldc": ["--gcc=cc","--vcolumns","--oq","--dip1000","--dip25","--safe-stack-layout","--boundscheck=on","--D","--g","--w","--de","--d-debug"
	],
	"authors": [
		"x"
	],
	"copyright": "Copyright © 2020, x",
	"dependencies": {
		"d2sqlite3": "~>0.19.1"
	},
	"description": "FileLocater.",
	"importPaths": [
		"/usr/local/include/d/gtkd-3"
	],
	"libs": [
		"gtkd-3"
	],
	"license": "proprietary",
	"name": "dub",
	"sourcePaths": [
		"./source"
	],
	"targetName": "FileLocator",
	"targetPath": "bin",
    "dflags-ldc": [
		"-gcc=gcc12"
    ]
}
